…
``` r
output |> 
  as_tibble() |> 
  slice(2) |> 
  dplyr::select(acc_dt) |> 
  unnest(acc_dt) |> 
  slice(1) |> 
  mutate(acc_burst = map(acc_burst, as_tibble)) |> # required for nicer unnesting compared to the original matrix format
  dplyr::select(acc_burst)|> 
  unnest(acc_burst)
```

    # A tibble: 264 × 3
       acc_x acc_y acc_z
       <dbl> <dbl> <dbl>
     1  1964  1757  1635
     2  1963  1760  1631
     3  1966  1759  1630
     4  1968  1760  1630
     5  1971  1761  1630
     6  1973  1760  1628
     7  1979  1760  1631
     8  1980  1755  1628
     9  1980  1759  1628
    10  1982  1761  1627
    # ℹ 254 more rows
…
